{
  "plugins": [
    "add-js-css",
    "edit-link",
    "flexible-alerts",
    "insert-logo",
    "pagefooter",
    "-lunr",
    "-search",
    "search-plus",
    "holaspirit"
  ],
  "pluginsConfig": {
    "insert-logo": {
      "url": "https://www.agilelab.it/hs-fs/hubfs/logo-agilelab.png",
      "style": "background: none;width: 180px;"
    },
    "edit-link": {
      "base": "https://gitlab.com/PublicAgileFactory/handbook/blob/master/",
      "label": "Edit on Gitlab"
    },
    "page-footer": {
      "footer": "<div class='custom page-footer'>© AgileLab <a href='https://www.agilelab.it/'>https://www.agilelab.it/</a></br></br>Found an error in the handbook? The source code can be found <a href='https://gitlab.com/PublicAgileFactory/handbook'>here</a>. Please feel free to edit and contribute a merge request<div>",
      "label": "Modified at: ",
      "format": "YYYY-MM-DD HH:mm:ss",
      "utc": true
    },
    "add-js-css": {
      "js": ["./scripts/asciinema-player.js"],
      "css": ["./style/footer.css", "./style/asciinema-player.css"]
    },
    "holaspirit": {
      "token": "env://HOLASPIRIT_TOKEN",
      "organizationId": "5d934a98a626a353151327d5"
    }
  }
}
